{
  "name" : "test",
  "path" : ":test",
  "finalizer" : false,
  "group" : "verification",
  "type" : "org.gradle.api.tasks.testing.Test",
  "queuePosition" : 11,
  "dependencies" : [ {
    "name" : "classes",
    "path" : ":classes",
    "finalizer" : false,
    "group" : "build",
    "type" : "org.gradle.api.DefaultTask",
    "queuePosition" : 7,
    "dependencies" : [ {
      "name" : "compileJava",
      "path" : ":compileJava",
      "finalizer" : false,
      "group" : null,
      "type" : "org.gradle.api.tasks.compile.JavaCompile",
      "queuePosition" : 5,
      "dependencies" : [ {
        "name" : "compileJava",
        "path" : ":producer:compileJava",
        "finalizer" : false,
        "group" : null,
        "type" : "org.gradle.api.tasks.compile.JavaCompile",
        "queuePosition" : 1
      } ]
    }, {
      "name" : "processResources",
      "path" : ":processResources",
      "finalizer" : false,
      "group" : null,
      "type" : "org.gradle.language.jvm.tasks.ProcessResources",
      "queuePosition" : 6
    } ]
  }, {
    "name" : "compileJava",
    "path" : ":compileJava",
    "finalizer" : false,
    "group" : null,
    "type" : "org.gradle.api.tasks.compile.JavaCompile",
    "queuePosition" : 5,
    "dependencies" : [ {
      "name" : "compileJava",
      "path" : ":producer:compileJava",
      "finalizer" : false,
      "group" : null,
      "type" : "org.gradle.api.tasks.compile.JavaCompile",
      "queuePosition" : 1
    } ]
  }, {
    "name" : "compileTestJava",
    "path" : ":compileTestJava",
    "finalizer" : false,
    "group" : null,
    "type" : "org.gradle.api.tasks.compile.JavaCompile",
    "queuePosition" : 8,
    "dependencies" : [ {
      "name" : "classes",
      "path" : ":classes",
      "finalizer" : false,
      "group" : "build",
      "type" : "org.gradle.api.DefaultTask",
      "queuePosition" : 7,
      "dependencies" : [ {
        "name" : "compileJava",
        "path" : ":compileJava",
        "finalizer" : false,
        "group" : null,
        "type" : "org.gradle.api.tasks.compile.JavaCompile",
        "queuePosition" : 5,
        "dependencies" : [ {
          "name" : "compileJava",
          "path" : ":producer:compileJava",
          "finalizer" : false,
          "group" : null,
          "type" : "org.gradle.api.tasks.compile.JavaCompile",
          "queuePosition" : 1
        } ]
      }, {
        "name" : "processResources",
        "path" : ":processResources",
        "finalizer" : false,
        "group" : null,
        "type" : "org.gradle.language.jvm.tasks.ProcessResources",
        "queuePosition" : 6
      } ]
    }, {
      "name" : "compileJava",
      "path" : ":compileJava",
      "finalizer" : false,
      "group" : null,
      "type" : "org.gradle.api.tasks.compile.JavaCompile",
      "queuePosition" : 5,
      "dependencies" : [ {
        "name" : "compileJava",
        "path" : ":producer:compileJava",
        "finalizer" : false,
        "group" : null,
        "type" : "org.gradle.api.tasks.compile.JavaCompile",
        "queuePosition" : 1
      } ]
    }, {
      "name" : "compileJava",
      "path" : ":producer:compileJava",
      "finalizer" : false,
      "group" : null,
      "type" : "org.gradle.api.tasks.compile.JavaCompile",
      "queuePosition" : 1
    } ]
  }, {
    "name" : "testClasses",
    "path" : ":testClasses",
    "finalizer" : false,
    "group" : "build",
    "type" : "org.gradle.api.DefaultTask",
    "queuePosition" : 10,
    "dependencies" : [ {
      "name" : "compileTestJava",
      "path" : ":compileTestJava",
      "finalizer" : false,
      "group" : null,
      "type" : "org.gradle.api.tasks.compile.JavaCompile",
      "queuePosition" : 8,
      "dependencies" : [ {
        "name" : "classes",
        "path" : ":classes",
        "finalizer" : false,
        "group" : "build",
        "type" : "org.gradle.api.DefaultTask",
        "queuePosition" : 7,
        "dependencies" : [ {
          "name" : "compileJava",
          "path" : ":compileJava",
          "finalizer" : false,
          "group" : null,
          "type" : "org.gradle.api.tasks.compile.JavaCompile",
          "queuePosition" : 5,
          "dependencies" : [ {
            "name" : "compileJava",
            "path" : ":producer:compileJava",
            "finalizer" : false,
            "group" : null,
            "type" : "org.gradle.api.tasks.compile.JavaCompile",
            "queuePosition" : 1
          } ]
        }, {
          "name" : "processResources",
          "path" : ":processResources",
          "finalizer" : false,
          "group" : null,
          "type" : "org.gradle.language.jvm.tasks.ProcessResources",
          "queuePosition" : 6
        } ]
      }, {
        "name" : "compileJava",
        "path" : ":compileJava",
        "finalizer" : false,
        "group" : null,
        "type" : "org.gradle.api.tasks.compile.JavaCompile",
        "queuePosition" : 5,
        "dependencies" : [ {
          "name" : "compileJava",
          "path" : ":producer:compileJava",
          "finalizer" : false,
          "group" : null,
          "type" : "org.gradle.api.tasks.compile.JavaCompile",
          "queuePosition" : 1
        } ]
      }, {
        "name" : "compileJava",
        "path" : ":producer:compileJava",
        "finalizer" : false,
        "group" : null,
        "type" : "org.gradle.api.tasks.compile.JavaCompile",
        "queuePosition" : 1
      } ]
    }, {
      "name" : "processTestResources",
      "path" : ":processTestResources",
      "finalizer" : false,
      "group" : null,
      "type" : "org.gradle.language.jvm.tasks.ProcessResources",
      "queuePosition" : 9
    } ]
  }, {
    "name" : "jar",
    "path" : ":producer:jar",
    "finalizer" : false,
    "group" : "build",
    "type" : "org.gradle.api.tasks.bundling.Jar",
    "queuePosition" : 4,
    "dependencies" : [ {
      "name" : "classes",
      "path" : ":producer:classes",
      "finalizer" : false,
      "group" : "build",
      "type" : "org.gradle.api.DefaultTask",
      "queuePosition" : 3,
      "dependencies" : [ {
        "name" : "compileJava",
        "path" : ":producer:compileJava",
        "finalizer" : false,
        "group" : null,
        "type" : "org.gradle.api.tasks.compile.JavaCompile",
        "queuePosition" : 1
      }, {
        "name" : "processResources",
        "path" : ":producer:processResources",
        "finalizer" : false,
        "group" : null,
        "type" : "org.gradle.language.jvm.tasks.ProcessResources",
        "queuePosition" : 2
      } ]
    }, {
      "name" : "compileJava",
      "path" : ":producer:compileJava",
      "finalizer" : false,
      "group" : null,
      "type" : "org.gradle.api.tasks.compile.JavaCompile",
      "queuePosition" : 1
    } ]
  } ]
}
