:test                                          (org.gradle.api.tasks.testing.Test)
+--- :classes                                  (org.gradle.api.DefaultTask)
|    +--- :compileJava                         (org.gradle.api.tasks.compile.JavaCompile)
|    |    `--- :producer:compileJava           (org.gradle.api.tasks.compile.JavaCompile)
|    `--- :processResources                    (org.gradle.language.jvm.tasks.ProcessResources)
+--- :testClasses                              (org.gradle.api.DefaultTask)
|    +--- :compileTestJava                     (org.gradle.api.tasks.compile.JavaCompile)
|    |    +--- :classes                        (org.gradle.api.DefaultTask)
|    |    |    +--- :compileJava               (org.gradle.api.tasks.compile.JavaCompile)
|    |    |    |    `--- :producer:compileJava (org.gradle.api.tasks.compile.JavaCompile)
|    |    |    `--- :processResources          (org.gradle.language.jvm.tasks.ProcessResources)
|    |    `--- :producer:compileJava           (org.gradle.api.tasks.compile.JavaCompile)
|    `--- :processTestResources                (org.gradle.language.jvm.tasks.ProcessResources)
`--- :transformationStep_xxxxxxx               (org.gradle.api.internal.artifacts.transform.TransformationNode$InitialTransformationNode)
     `--- :producer:jar                        (org.gradle.api.tasks.bundling.Jar)
          `--- :producer:classes               (org.gradle.api.DefaultTask)
               +--- :producer:compileJava      (org.gradle.api.tasks.compile.JavaCompile)
               `--- :producer:processResources (org.gradle.language.jvm.tasks.ProcessResources)

The above includes internal nodes added by Gradle which are not backed by tasks.
