{
  "name" : "taskA",
  "path" : ":taskA",
  "finalizer" : false,
  "group" : null,
  "type" : "org.gradle.api.DefaultTask",
  "queuePosition" : 4,
  "dependencies" : [ {
    "name" : "included",
    "path" : ":included",
    "finalizer" : false,
    "group" : null,
    "type" : "org.gradle.composite.internal.CompositeBuildTaskDelegate",
    "queuePosition" : 1
  }, {
    "name" : "taskB",
    "path" : ":taskB",
    "finalizer" : false,
    "group" : null,
    "type" : "org.gradle.api.DefaultTask",
    "queuePosition" : 2
  }, {
    "name" : "taskC",
    "path" : ":taskC",
    "finalizer" : false,
    "group" : null,
    "type" : "org.gradle.api.tasks.bundling.Jar",
    "queuePosition" : 3
  } ]
}
