{
  "name" : "taskA",
  "path" : ":taskA",
  "finalizer" : false,
  "group" : null,
  "type" : "org.gradle.api.DefaultTask",
  "queuePosition" : 3,
  "dependencies" : [ {
    "name" : "taskB",
    "path" : ":taskB",
    "finalizer" : false,
    "group" : null,
    "type" : "org.gradle.api.DefaultTask",
    "queuePosition" : 1
  }, {
    "name" : "taskC",
    "path" : ":taskC",
    "finalizer" : false,
    "group" : null,
    "type" : "org.gradle.api.tasks.bundling.Jar",
    "queuePosition" : 2
  }, {
    "name" : "taskD",
    "path" : ":taskD",
    "finalizer" : true,
    "group" : null,
    "type" : "org.gradle.api.DefaultTask",
    "queuePosition" : 7,
    "dependencies" : [ {
      "name" : "taskE",
      "path" : ":taskE",
      "finalizer" : false,
      "group" : null,
      "type" : "org.gradle.api.DefaultTask",
      "queuePosition" : 4
    }, {
      "name" : "taskF",
      "path" : ":taskF",
      "finalizer" : false,
      "group" : null,
      "type" : "org.gradle.api.DefaultTask",
      "queuePosition" : 6,
      "dependencies" : [ {
        "name" : "taskG",
        "path" : ":taskG",
        "finalizer" : false,
        "group" : null,
        "type" : "org.gradle.api.DefaultTask",
        "queuePosition" : 5
      } ]
    } ]
  } ]
}
