:taskA                  (org.gradle.api.DefaultTask)
+--- :taskB             (org.gradle.api.DefaultTask)
+--- :taskC             (org.gradle.api.tasks.bundling.Jar)
`--- :taskD (finalizer) (org.gradle.api.DefaultTask)
     +--- :taskE        (org.gradle.api.DefaultTask)
     `--- :taskF        (org.gradle.api.DefaultTask)
          `--- :taskG   (org.gradle.api.DefaultTask)
